[ 
  
  {
    "id": 1,
    "nombre": "Chocolate de Mesa Corona Tradicional",
    "referencia": "CHMCT",
    "tipoProducto": 2,
    "fechaIngreso": "2021-02-28T20:28:52.27629",
    "Precio": 100,
    "listaExistenciaDetalleProductos": [
      {
        "id": 5,
        "vendido": false,
        "estadoProducto": 0,
        "serie": "CHMCT-005",
        "productoId": 1
      },
      {
        "id": 1,
        "vendido": true,
        "estadoProducto": 0,
        "serie": "CHMCT-001",
        "productoId": 1
      },
      {
        "id": 2,
        "vendido": true,
        "estadoProducto": 0,
        "serie": "CHMCT-002",
        "productoId": 1
      },
      {
        "id": 3,
        "vendido": false,
        "estadoProducto": 0,
        "serie": "CHMCT-003",
        "productoId": 1
      },
      {
        "id": 4,
        "vendido": false,
        "estadoProducto": 0,
        "serie": "CHMCT-004",
        "productoId": 1
      }
    ]
  },
  {
    "id": 2,
    "nombre": "Leche Deslactosada Parmala",
    "referencia": "LD",
    "tipoProducto": 2,
    "fechaIngreso": "2021-02-28T20:28:52.276295",
    "Precio": 200,
    "listaExistenciaDetalleProductos": [
      {
        "id": 7,
        "vendido": true,
        "estadoProducto": 0,
        "serie": "LD-002",
        "productoId": 2
      },
      {
        "id": 6,
        "vendido": true,
        "estadoProducto": 0,
        "serie": "LD-001",
        "productoId": 2
      },
      {
        "id": 8,
        "vendido": true,
        "estadoProducto": 0,
        "serie": "LD-003",
        "productoId": 2
      }
    ]
  },
  {
    "id": 3,
    "nombre": "Vino Cerro Verde Chardonnay",
    "referencia": "VCVC",
    "tipoProducto": 2,
    "fechaIngreso": "2021-02-28T20:28:52.276295",
    "Precio": 600,
    "listaExistenciaDetalleProductos": [
      {
        "id": 12,
        "vendido": false,
        "estadoProducto": 0,
        "serie": "VCVC-004",
        "productoId": 3
      },
      {
        "id": 9,
        "vendido": false,
        "estadoProducto": 0,
        "serie": "VCVC-001",
        "productoId": 3
      },
      {
        "id": 11,
        "vendido": false,
        "estadoProducto": 0,
        "serie": "VCVC-003",
        "productoId": 3
      },
      {
        "id": 10,
        "vendido": false,
        "estadoProducto": 0,
        "serie": "VCVC-002",
        "productoId": 3
      },
      {
        "id": 13,
        "vendido": false,
        "estadoProducto": 0,
        "serie": "VCVC-005",
        "productoId": 3
      }
    ]
  },
  {
    "id": 4,
    "nombre": "Tapabocas Anti-fluidos",
    "referencia": "TAF",
    "tipoProducto": 3,
    "fechaIngreso": "2021-02-28T20:28:52.276296",
    "Precio": 600,
    "listaExistenciaDetalleProductos": [
      {
        "id": 18,
        "vendido": false,
        "estadoProducto": 0,
        "serie": "TAF-005",
        "productoId": 4
      },
      {
        "id": 14,
        "vendido": false,
        "estadoProducto": 0,
        "serie": "TAF-001",
        "productoId": 4
      },
      {
        "id": 15,
        "vendido": false,
        "estadoProducto": 0,
        "serie": "TAF-002",
        "productoId": 4
      },
      {
        "id": 16,
        "vendido": false,
        "estadoProducto": 0,
        "serie": "TAF-003",
        "productoId": 4
      },
      {
        "id": 17,
        "vendido": false,
        "estadoProducto": 0,
        "serie": "TAF-004",
        "productoId": 4
      }
    ]
  },
  {
    "id": 5,
    "nombre": "Chocolate Tres Cordilleras Tradicional",
    "referencia": "CHTCT",
    "tipoProducto": 2,
    "fechaIngreso": "2021-02-28T20:28:52.27612",
    "Precio": 400,
    "listaExistenciaDetalleProductos": [
      {
        "id": 19,
        "vendido": true,
        "estadoProducto": 0,
        "serie": "CHTCT-001",
        "productoId": 5
      }
    ]
  }
]